30 naira loss
4
Scalene triangle
Scalene triangle
30m squared
20000 km
124 cm squared
97 sacks
13245 kg
1kg, 0.6kg, 0.8kg, 475g
$12 loss
29/24
4/7
65
170
7/13
249 naira
19
318.2
29602.6
12
6
26
24
1800
200
11900
1349
7/8
3/5
1/400
1,2,6,5,10
10
25
694
1479
MLiv
6hrs 42min
20 mins early
9:20 am
4
Length x breadth
50
1700 litres
3758 litres
168 L
4500 cm
20th of June
15th of June
48000 g
63 minutes
280 minutes
5 days
8km
1300metres
7000 naira
790 naira
47
620 naira
79 naira
2.699 g
128
75
117
4cm
120 minutes
1900
1600
15
30 cm
7
10.15
46.5
36.75
8.97
17.2
1.95
107.62
27/9
1/13
49/72
12789
64/3
37.8
0.5m, 250cm, 2.54 m
37.437
improper
6/7, 7/8, 5/4
1,4
185
13
64
12 4, 16, 8
26
198
hundred thousand
hundredth
12:30pm
132056
Eight million, seven thousand, one hundred and twenty eight
thousandth
59
odd
5 x 5 x 5
46
69
5
4
9
4
39.5cm squared
35 cm
sector
1
lines
14
4
obtuse angle
scalene triangle
5
acute angle
lines
1.56 l
3230cm cubed
100 cm
B x L x L
74cm squared
12400 cm squared
12 cm
thermometer
3.45km/hrs
76km
8/6 km/minute
144kg
955g
3352.5
1325g
5412g
64cm
36cm
160 cm squared
225
6%
40 dollars
50 dollars loss
43 pounds
6
124 kobo coins
12.557 naira
4
1.99
47.35 bags
49.12kg
24 naira
51.25cm
16.3cm
0.76
0.34 metres
14
61
5
28.75
394
313.27
2565.5
2932 words
1536 chocolates
4.2 hrs
31.4 days
5
-6
-1
18
14.222
250 naira
1940 tubers
4010 naira
Four thousand, eight hundred thousand and fifty eight
8
4:7
56, 76 oranges
3:5
1:3
1:1
3:8
83
30
21.4
240 mangoes
534
117 naira
24.75%
1247 naira
11
1/4
35.75
51.2
54.3
31 days
0.044
13/20
103
12
9/45
140, 000 cm cubed
15, 500 cm cubed
540 cm cubed
5597.5cm cubed
710cm cubed
4874 kg
25.81m
53 litres
4.839 litres
4.26 hrs
80hrs
4.62 hrs
9:20 hrs
8:40 pm
302, 400 km
832, 800 km
x=12, y=27
x=5, y=3
1.4, 1.6
1hr 49 minutes
1.705 l
113 hrs
25 times
50 times
800g, 5/4kg, 0.850kg, 900g
2.200g, 2.320kg, 2.200kg, 2.305kg
5:45am
2.598 kg
38.3kg
19 weeks
3000 cm squared
636 cm squared
1.425 hectares
27 litres
45 buckets
28cm
4 meter squared
4400 naira
433.5km
44.2 cm squared
112.1 cm squared
9 cm
8.33 cm
2600 cm squared
13
6850 kobo
11,500 kobo
640 naira
200 naira
0.16 per naira
100001111
1000111
25
1111
10110000
225.25
1/4
222.9
11%
10000
1960
112 naira
118 naira
74 000 naira
130% profit
115.2% profit
24 m
3700, 9600 naira
39 bags
1700 g
72
1.4
41m
3 raised to power 8
34
(13 x 13 x 13) squared
1352
2780
540 naira
65 times
87
44.95
119
5.7
5.2
501.175 naira
17.2
26.39
38
13 naira
46
93 hours
10 x 40
21
56
3/21
24.80
3.6 crates
81 650.4 naira
283.3 cm cubed
166.11 cm
28 394
67 824
94 509
36 711
1.182 kg
3.9m
4.901 km
35.2 naira
35/12 km
3/5
2/24
343
2020
1209
31 000
53
28 000
18302.5
289350
7436
569
11 620
57 108
186.72
135m
46
3/5
36.4%
3 cm
250
312
2095