30 naira profit
3
Isoceless triangle
Isoceless triangle
20 m squared
20475 km
144 cm squared
98 sacks
13.245g
1kg, 0.8kg, 0.6kg, 475g
$12 profit
3/8
7/12
55
200 naira
2/8
300 naira
5
248.9
2902.6 naira
16
2
676
30
17800g
68
11800
114
6/8
4/5
25/100
1,3,5,15
12
1,25
594
1589
CLiv
9hr 43min
20 mins late
8:55 am
5
1/2 x base x height
60
1500 litres
3.1182
160 L
45 cm
17th of June
16th of June
48200g
59 mins
270 minutes
3 days
5km
1241 metres
6740.67 naira
700
456
603 naira
1.699g
100
69
80
120
3cm
150 minutes
1730
500
12
35 cm
15
11
6.5
30
10
15
1.96
100.68
27/9
1/3
59/72
12780
65/9
37
250cm, 2.54m, 0.5m
37.037
proper
5/4, 7/8, 6/7
1,3
180
14
65
4, 12, 8, 16
25
199
ten thousand
hundred
12:20am
132050
Eight billion. seven thousand, one hundred and twenty eight
thousand
54
Even
5 x 5
48
66
6
5
5
2
38.5cm squared
37 cm
segment
3
Perpendicular lines
12
5
acute angle
equilateral triangle
4
obtuse angle
parallel lines
1.66 l
3240cm cubed
110 cm
L x L x L
78cm squared
11400 cm squared
10 cm
hydrometer
3.43km/hrs
75km
5/6 km/minute
145kg
950g
3362.5
1315g
5512g
65cm
39cm
180 cm squared
224
5%
30 dollars
30 dollars loss
23 pounds
7
123 kobo coins
12.57 naira
5
0.99
37.35 bags
48.12kg
21 naira
52.25cm
12.3cm
0.71
0.31 metres
13
67
2
18.75
397
317.27
2555.5
2912 words
1533 chocolates
4.6 hrs
31.2 days
0
-5
-2
13
13.222
252 naira
1900 tubers
4030 naira
Four thousand, eight hundred and fifty eight
9
3:7
46, 76 oranges
2:5
1:5
1:3
3:5
80
33
25.4
210 mangoes
504
118 naira
29.75%
1277 naira
10
1/5
34.75
57.2
58.3
32 days
0.004
13/50
100
13
6/45
150, 000 cm cubed
10, 500 cm cubed
560 cm cubed
5297.5cm cubed
780cm cubed
1874 kg
25.91m
59 litres
4.739 litres
4.16 hrs
85hrs
1.62 hrs
9:40 hrs
8:30 pm
303, 400 km
830, 800 km
x=32, y=17
x=5, y=2
1.3, 1.6
1hr 29 minutes
1.505 l
115 hrs
36 times
58 times
800g, 3/4kg, 0.850kg, 900g
2.200g, 2.020kg, 2.200kg, 2.305kg
5:35am
2.798 kg
38.9kg
18 weeks
3050 cm squared
626 cm squared
1.225 hectares
28 litres
47 buckets
25cm
3 meter squared
3400 naira
432.5km
42.2 cm squared
152.1 cm squared
8 cm
8.34 cm
2500 cm squared
14
6950 kobo
10,500 kobo
600 naira
250 naira
0.06 per naira
100000111
1010111
24
1011
11110000
225.35
1/3
220.9
10%
1000
1200
115 naira
112 naira
73 000 naira
13% profit
114.2% profit
23 m
3500, 9600 naira
38 bags
1800 g
73
1.3
42m
2 raised to power 8
35
(11 x 13 x 13) squared
1252
2880
545 naira
64 times
86
48.95
129
6.7
6.2
601.175 naira
18.2
26.29
37
12 naira
45
91 hours
10 x 30
20
58
3/11
24.89
3.5 crates
81 650.5 naira
283.2 cm cubed
166.01 cm
28 392
73 490
94 500
36 7411
1.682 kg
3.8m
3.901 km
45.2 naira
25/12 km
3/4
2/14
342
2010
1289
31 200
52
18 000
48302.5
289354
74365
561
15 620
57 180
186.78
145m
36
3/7
33.4%
9 cm
150
332
2895